^B:\CPP\C++ CLASSES VECTOR\DEBUG\DZ.OBJ
B:\CPP\C++ CLASSES VECTOR\DEBUG\C++ CLASSES VECTOR.EXE
B:\CPP\C++ CLASSES VECTOR\DEBUG\C++ CLASSES VECTOR.ILK
B:\CPP\C++ CLASSES VECTOR\DEBUG\C++ CLASSES VECTOR.PDB
